{
  "images" : [
    {
      "idiom" : "universal",
      "filename" : "productEyeWash130X130.png",
      "scale" : "1x"
    },
    {
      "idiom" : "universal",
      "filename" : "productEyeWash130X130@2x.png",
      "scale" : "2x"
    },
    {
      "idiom" : "universal",
      "filename" : "productEyeWash130X130@3x.png",
      "scale" : "3x"
    }
  ],
  "info" : {
    "version" : 1,
    "author" : "xcode"
  }
}